…
``` r
# install.packages("remotes")
remotes::install_github("ramiromagno/geisha")
```

## Usage

This package provides one single dataset: `geisha_expression`.

``` r
library(geisha)

geisha_expression
#> # A tibble: 2,857,048 x 8
#>    ncbi_gene_id ensembl_gene_id  gene_name stage tissue   geisha_id  birdbase_id
#>    <chr>        <chr>            <chr>     <fct> <chr>    <chr>      <chr>      
#>  1 100049058    ENSGALG00000027… DAG1      3     Blood V… DAG1.UApcr BB-GG2638  
#>  2 100049058    ENSGALG00000027… DAG1      3     Blood V… DAG1.Jave… BB-GG2638  
#>  3 100049058    ENSGALG00000027… DAG1      3     Early E… DAG1.UApcr BB-GG2638  
#>  4 100049058    ENSGALG00000027… DAG1      3     Early E… DAG1.Jave… BB-GG2638  
#>  5 100049058    ENSGALG00000027… DAG1      3     Early M… DAG1.UApcr BB-GG2638  
#>  6 100049058    ENSGALG00000027… DAG1      3     Early M… DAG1.Jave… BB-GG2638  
#>  7 100049058    ENSGALG00000027… DAG1      3     Ectoderm DAG1.UApcr BB-GG2638  
#>  8 100049058    ENSGALG00000027… DAG1      3     Ectoderm DAG1.Jave… BB-GG2638  
#>  9 100049058    ENSGALG00000027… DAG1      3     Epiblast DAG1.UApcr BB-GG2638  
#> 10 100049058    ENSGALG00000027… DAG1      3     Epiblast DAG1.Jave… BB-GG2638  
#> # … with 2,857,038 more rows, and 1 more variable: gene_ontology_id <chr>
```
…
